%YAML 1.1
%TAG !u! tag:unity3d.com,2011:
--- !u!114 &11400000
MonoBehaviour:
  m_ObjectHideFlags: 0
  m_PrefabParentObject: {fileID: 0}
  m_PrefabInternal: {fileID: 0}
  m_GameObject: {fileID: 0}
  m_Enabled: 1
  m_EditorHideFlags: 0
  m_Script: {fileID: 2108210716, guid: 89f0137620f6af44b9ba852b4190e64e, type: 3}
  m_Name: Silver
  m_EditorClassIdentifier: 
  topLeft: {r: 0.9607843, g: 0.9647059, b: 0.98039216, a: 1}
  topRight: {r: 0.9607843, g: 0.9647059, b: 0.98039216, a: 1}
  bottomLeft: {r: 0.8627451, g: 0.8666667, b: 0.88235295, a: 1}
  bottomRight: {r: 0.8627451, g: 0.8666667, b: 0.88235295, a: 1}
