%YAML 1.1
%TAG !u! tag:unity3d.com,2011:
--- !u!1045 &1
EditorBuildSettings:
  m_ObjectHideFlags: 0
  serializedVersion: 2
  m_Scenes:
  - enabled: 1
    path: Assets/Scenes/MainMenu.unity
    guid: 68c8680ff9c810f40818eeec29520ad9
  - enabled: 1
    path: Assets/Scenes/CompassGame 1.unity
    guid: 81db6797b7711c84f9845ede06afda26
  m_configObjects: {}
